{
    "todos": [
        {
            "name": "Ontrack",
            "personal_name":"isabella",
            "budget_name": "Software ",
            "id": 1,
            "spent": [{
              "value":149,
              "currency": "INR"
              }],
            "available_to_spend": [{
              "value":149,
              "currency": "INR"
            }],
            "card_type": "burner",
            "expiry": "9 jun",
            "limit": 96,
            "status": "active"
          },
      {
        "name": "Ontrack",
        "personal_name":"isabella",
        "budget_name": "Software ",
        "id": 1,
        "spent": [{
          "value":149,
          "currency": "INR"
          }],
        "available_to_spend": [{
          "value":149,
          "currency": "INR"
        }],
        "card_type": "burner",
        "expiry": "9 jun",
        "limit": 96,
        "status": "active"
      },
      {
        "name": "Bonzi",
        "personal_name":"isabella",
        "budget_name": "Software ",
        "id": 1,
        "spent": [{
          "value":149,
          "currency": "INR"
          }],
        "available_to_spend": [{
          "value":149,
          "currency": "INR"
        }],
        "card_type": "burner",
        "expiry": "9 jun",
        "limit": 96,
        "status": "active"
      },
      {
        "name": "lukework",
        "personal_name":"isabella",
        "budget_name": "Software ",
        "id": 1,
        "spent": [{
          "value":149,
          "currency": "INR"
          }],
        "available_to_spend": [{
          "value":149,
          "currency": "INR"
        }],
        "card_type": "burner",
        "expiry": "9 jun",
        "limit": 96,
        "status": "active"
      },
      {
        "name": "Pensak",
        "personal_name":"isabella",
        "budget_name": "Software ",
        "id": 1,
        "spent": [{
          "value":149,
          "currency": "INR"
          }],
        "available_to_spend": [{
          "value":149,
          "currency": "INR"
        }],
        "card_type": "burner",
        "expiry": "9 jun",
        "limit": 96,
        "status": "active"
      },

      {
        "name": "Lindakle",
        "personal_name":"isabella",
        "budget_name": "Software ",
        "id": 1,
        "spent": [{
          "value":149,
          "currency": "INR"
          }],
        "available_to_spend": [{
          "value":149,
          "currency": "INR"
        }],
        "card_type":"subscription",
        "currency": "14 Nov",
        "limit": 96,
        "status": "active"
      },
      {
        "name": "Bestie",
        "personal_name":"isabella",
        "budget_name": "Software ",
        "id": 1,
        "spent": [{
          "value":149,
          "currency": "INR"
          }],
        "available_to_spend": [{
          "value":149,
          "currency": "INR"
        }],
        "card_type":"subscription",
        "currency": "14 Nov",
        "limit": 96,
        "status": "active"
      },
      {
        "name": "Khoros",
        "personal_name":"isabella",
        "budget_name": "Software ",
        "id": 1,
        "spent": [{
          "value":149,
          "currency": "INR"
          }],
        "available_to_spend": [{
          "value":149,
          "currency": "INR"
        }],
        "card_type":"subscription",
        "currency": "14 Nov",
        "limit": 96,
        "status": "active"
      },
      {
        "name": "Psart",
        "personal_name":"isabella",
        "budget_name": "Software ",
        "id": 1,
        "spent": [{
          "value":149,
          "currency": "INR"
          }],
        "available_to_spend": [{
          "value":149,
          "currency": "INR"
        }],
        "card_type":"subscription",
        "currency": "14 Nov",
        "limit": 96,
        "status": "active"
      },
      {
        "name": "Ontrack",
        "personal_name":"isabella",
        "budget_name": "Software ",
        "id": 1,
        "spent": [{
          "value":149,
          "currency": "INR"
          }],
        "available_to_spend": [{
          "value":149,
          "currency": "INR"
        }],
        "card_type":"subscription",
        "currency": "14 Nov",
        "limit": 96,
        "status": "active"
      },
      {
        "name": "Bounce",
        "personal_name":"Vivek",
        "budget_name": "Software ",
        "id": 1,
        "spent": [{
          "value":149,
          "currency": "INR"
          }],
        "available_to_spend": [{
          "value": 120,
          "currency": "INR"
        }],
        "card_type":"subscription",
        "currency": "14 Nov",
        "limit": 96,
        "status": "active"
      }

    ],
    "meta":{
        "last_page":5,
        "per_page":10,
        "total":50,
        "current_page":1,
        "path":"http://localhost:3000/todos",
        "from":1
    }
  }